{
  "git@gitlab.com:itential/automation-gateway/gateway5.git" : "devel",
  "git@gitlab.com:itential/automation-gateway/torero.git": "devel",
  "git@gitlab.com:itential/cloud/gateway-management-ui.git": "master",
  "git@gitlab.com:itential/labs/app-iag_commander.git": "master",
  "git@gitlab.com:itential/labs/app-ottoman.git": "master",
  "git@gitlab.com:itential/product-engineering/iap.git": "master"
}
